<?xml version="1.0" encoding="UTF-8"?>
<OAI-PMH
        xmlns="http://www.openarchives.org/OAI/2.0/"
        xmlns:xsi="http://www.w3.org/2001/XMLSchema-instance"
        xsi:schemaLocation="http://www.openarchives.org/OAI/2.0/
    http://www.openarchives.org/OAI/2.0/OAI-PMH.xsd">
    <responseDate>2018-08-29T06:41:47Z</responseDate>
    <request verb="ListRecords" set="Sites" metadataPrefix="ff">http://172.22.142.51:8090/ffrepox/OAIHandler</request>
    <ListRecords>
        <record>
            <header>
                <identifier>urn:repox.www.kulturarv.dkSites:http://www.kulturarv.dk/fundogfortidsminder/site/206758</identifier>
                <datestamp>2018-08-25</datestamp>
                <setSpec>Sites</setSpec>
            </header>
            <metadata>
                <ff:site
                        xmlns:ff="http://www.kulturarv.dk/fundogfortidsminder/ff"
                        xmlns="http://www.kulturarv.dk/fundogfortidsminder/ff"
                        xmlns:gml="http://www.opengis.net/gml"
                        xmlns:xsi="http://www.w3.org/2001/XMLSchema-instance">
                    <id ff:type="uri">http://www.kulturarv.dk/fundogfortidsminder/site/206758</id>
                    <date>2018-08-24T17:00:01.631377+02:00</date>
                    <siteNo>44</siteNo>
                    <ext/>
                    <parishNo>
                        <conceptID ff:type="uri">http://www.kulturarv.dk/fundogfortidsminder/skos/parish#170207</conceptID>
                        <term>Nørre Bramdrup</term>
                    </parishNo>
                    <plotType>
                        <conceptID ff:type="uri">http://www.kulturarv.dk/fundogfortidsminder/skos/plot#49</conceptID>
                        <term>Afsat af museumsmedarbejder</term>
                    </plotType>
                    <ff:placeNames>
                        <placeName>
                            <name>Jupitervej</name>
                            <year>2008</year>
                            <placeNameType>
                                <conceptID ff:type="uri">http://www.kulturarv.dk/fundogfortidsminder/skos/placename#4</conceptID>
                                <term>Vej-, gade-, o.lign., evt. nr.+ bynavn</term>
                            </placeNameType>
                        </placeName>
                    </ff:placeNames>
                    <adminArea>
                        <municipality>
                            <conceptID ff:type="uri">http://www.kulturarv.dk/fundogfortidsminder/skos/municipality#621</conceptID>
                            <term>Kolding</term>
                        </municipality>
                        <museum>
                            <conceptID ff:type="uri">http://www.kulturarv.dk/fundogfortidsminder/skos/institution#)MKH</conceptID>
                            <term>Museet på Koldinghus</term>
                        </museum>
                        <supervision>
                            <conceptID ff:type="uri">http://www.kulturarv.dk/fundogfortidsminder/skos/institution#MSJ</conceptID>
                            <term>Museum Sønderjylland</term>
                        </supervision>
                    </adminArea>
                    <ff:geodata
                            xmlns="http://www.opengis.net/gml">
                        <gml:Point srsName="EPSG:25832">
                            <gml:pos srsDimension="2">529531;6154520</gml:pos>
                        </gml:Point>
                    </ff:geodata>
                    <ff:objects>
                        <primaryObject>
                            <id ff:type="uri">http://www.kulturarv.dk/fundogfortidsminder/object/296458</id>
                            <text xsi:nil="true"/>
                            <date>
                                <fromYear>1067</fromYear>
                                <toYear>1299</toYear>
                                <mainPeriod>DXXX</mainPeriod>
                                <period>
                                    <conceptID ff:type="uri">http://www.kulturarv.dk/fundogfortidsminder/skos/period#DÆXX</conceptID>
                                    <term>Ældre Middelalder (1066 - 1300)</term>
                                    <publicTerm>Middelader</publicTerm>
                                </period>
                            </date>
                            <characteristics/>
                            <objectType>
                                <conceptID ff:type="uri">http://www.kulturarv.dk/fundogfortidsminder/skos/object#03089</conceptID>
                                <term>Hus (evt. med stald)</term>
                                <objectClassTerm>Bosættelse</objectClassTerm>
                                <objectClassExplanation>alle former for bosættelse</objectClassExplanation>
                            </objectType>
                            <transportObject/>
                        </primaryObject>
                    </ff:objects>
                    <ff:events>
                        <event>
                            <startDate>2008-09-09</startDate>
                            <endDate>2008-09-11</endDate>
                            <altArchive xsi:nil="true"/>
                            <caseNo>MKH1649</caseNo>
                            <eventType>
                                <conceptID ff:type="uri">http://www.kulturarv.dk/fundogfortidsminder/skos/event#MFU</conceptID>
                                <term>Museal forundersøgelse</term>
                                <eventClassTerm>Museal</eventClassTerm>
                            </eventType>
                            <institution>
                                <conceptID ff:type="uri">http://www.kulturarv.dk/fundogfortidsminder/skos/institution#MKH</conceptID>
                                <term>Museet på Koldinghus</term>
                            </institution>
                            <archive>
                                <conceptID ff:type="uri">http://www.kulturarv.dk/fundogfortidsminder/skos/archive#SBT</conceptID>
                                <term>Sognebeskrivelsen</term>
                            </archive>
                            <ff:texts>
                                <text>
                                    <freeText>En arkæologisk prøvegravning i forbindelse med anlæggelsen af en kloakledning. Der blev fundet spor efter et hus fra middelalderen, samt enkelte andre anlæg. Nogle få andre anlæg, kan dateres til jernalderen.</freeText>
                                    <textType>
                                        <conceptID ff:type="uri">http://www.kulturarv.dk/fundogfortidsminder/skos/text#BLA</conceptID>
                                        <term>Blandet tekst</term>
                                    </textType>
                                </text>
                            </ff:texts>
                            <ff:persons>
                                <person>
                                    <conceptID ff:type="uri">http://www.kulturarv.dk/fundogfortidsminder/skos/person#131862</conceptID>
                                    <term>Christian-Peter Pedersen</term>
                                    <role>
                                        <conceptID ff:type="uri">http://www.kulturarv.dk/fundogfortidsminder/skos/role#213</conceptID>
                                        <term>Daglig leder</term>
                                    </role>
                                </person>
                            </ff:persons>
                        </event>
                        <event>
                            <startDate>2008-09-15</startDate>
                            <endDate>2008-09-23</endDate>
                            <altArchive xsi:nil="true"/>
                            <caseNo>MKH 1649</caseNo>
                            <eventType>
                                <conceptID ff:type="uri">http://www.kulturarv.dk/fundogfortidsminder/skos/event#MUG</conceptID>
                                <term>Museal udgravning</term>
                                <eventClassTerm>Museal</eventClassTerm>
                            </eventType>
                            <institution>
                                <conceptID ff:type="uri">http://www.kulturarv.dk/fundogfortidsminder/skos/institution#MKH</conceptID>
                                <term>Museet på Koldinghus</term>
                            </institution>
                            <archive>
                                <conceptID ff:type="uri">http://www.kulturarv.dk/fundogfortidsminder/skos/archive#SBT</conceptID>
                                <term>Sognebeskrivelsen</term>
                            </archive>
                            <ff:texts>
                                <text>
                                    <freeText>Forud for etablering af vej og kloaktracee i forbindelse med industriudstykning foretoges arkæologisk udgravning af en højmiddelalderlig hustomt. Huset var et etskibet retvægget rammehus med asymmetrisk placerede stolper. Huset kunne følges i to faser. Huset er c14-dateret til o. 1200 e.Kr. Nord for huset fremkom et mindre vådområde med udsmid af lerkarskår mv.</freeText>
                                    <textType>
                                        <conceptID ff:type="uri">http://www.kulturarv.dk/fundogfortidsminder/skos/text#BLA</conceptID>
                                        <term>Blandet tekst</term>
                                    </textType>
                                </text>
                            </ff:texts>
                            <ff:persons>
                                <person>
                                    <conceptID ff:type="uri">http://www.kulturarv.dk/fundogfortidsminder/skos/person#120302</conceptID>
                                    <term>Lisbeth Christensen</term>
                                    <title>
                                        <conceptID ff:type="uri">http://www.kulturarv.dk/fundogfortidsminder/skos/title#1354</conceptID>
                                        <term>Kaptajn</term>
                                    </title>
                                    <role>
                                        <conceptID ff:type="uri">http://www.kulturarv.dk/fundogfortidsminder/skos/role#210</conceptID>
                                        <term>Ansvarlig</term>
                                    </role>
                                </person>
                            </ff:persons>
                        </event>
                    </ff:events>
                    <ff:digitalDocumentations>
                        <digitalDocumentation>
                            <id ff:type="uri">http://www.kulturarv.dk/fundogfortidsminder/resource/118042</id>
                            <name>MKH 1649 Jupitervej - Beretning</name>
                            <date>2014-07-01</date>
                            <filename>msj1haan_20140820141021.pdf</filename>
                            <copyright>Museum Sønderjylland - Arkæologi Haderslev på vegne af Museet på Koldinghus</copyright>
                            <legalUse>Med angivelse af forfatter og Institution</legalUse>
                            <description>Beretning: Forud for etablering af vej og kloaktracee i forbindelse med industriudstykning foretoges arkæologisk udgravning af en højmiddelalderlig hustomt. Huset var et etskibet retvægget rammehus med asymmetrisk placerede stolper. Huset kunne følges i to faser. Huset er c14-dateret til o. 1200 e.Kr. Nord for huset fremkom et mindre vådområde med udsmid af lerkarskår mv.</description>
                            <link>http://www.kulturarv.dk/fundogfortidsminder/resource/118042</link>
                            <isShownAt>http://www.kulturarv.dk/fundogfortidsminder/Lokalitet/206758</isShownAt>
                            <documentType>
                                <conceptID ff:type="uri">http://www.kulturarv.dk/fundogfortidsminder/skos/digitaldocumentation#BER</conceptID>
                                <term>Beretning</term>
                            </documentType>
                            <ff:persons>
                                <person>
                                    <conceptID ff:type="uri">http://www.kulturarv.dk/fundogfortidsminder/skos/person#123416</conceptID>
                                    <term> Lisbeth Christensen</term>
                                    <role>
                                        <conceptID ff:type="uri">http://www.kulturarv.dk/fundogfortidsminder/skos/role#213</conceptID>
                                        <term>Daglig leder</term>
                                    </role>
                                </person>
                            </ff:persons>
                        </digitalDocumentation>
                        <digitalDocumentation>
                            <id ff:type="uri">http://www.kulturarv.dk/fundogfortidsminder/resource/92760</id>
                            <name>MKH1649_Jupitervej_Forundersøgelsesrapport</name>
                            <date>2008-09-11</date>
                            <filename>msj1haan_20121204082625.pdf</filename>
                            <copyright xsi:nil="true"/>
                            <legalUse xsi:nil="true"/>
                            <description>Forundersøgelsesrapport over en arkæologisk prøvegravning i 2008 i forbindelse med anlæggelsen af en kloakledning. Der blev fundet spor efter et hus fra middelalderen, samt enkelte andre anlæg. Nogle få andre anlæg, kan dateres til jernalderen.</description>
                            <link>http://www.kulturarv.dk/fundogfortidsminder/resource/92760</link>
                            <isShownAt>http://www.kulturarv.dk/fundogfortidsminder/Lokalitet/206758</isShownAt>
                            <documentType>
                                <conceptID ff:type="uri">http://www.kulturarv.dk/fundogfortidsminder/skos/digitaldocumentation#FOR</conceptID>
                                <term>Forundersøgelsesrapport</term>
                            </documentType>
                            <ff:persons>
                                <person>
                                    <conceptID ff:type="uri">http://www.kulturarv.dk/fundogfortidsminder/skos/person#131862</conceptID>
                                    <term>Christian-Peter Pedersen</term>
                                    <role>
                                        <conceptID ff:type="uri">http://www.kulturarv.dk/fundogfortidsminder/skos/role#213</conceptID>
                                        <term>Daglig leder</term>
                                    </role>
                                </person>
                            </ff:persons>
                        </digitalDocumentation>
                        <digitalDocumentation>
                            <id ff:type="uri">http://www.kulturarv.dk/fundogfortidsminder/resource/map/206758</id>
                            <name>Jupitervej</name>
                            <date>2018-08-24</date>
                            <filename xsi:nil="true"/>
                            <copyright>Kort og Matrikelstyrelsen</copyright>
                            <legalUse>Må kun kopieres til personlig brug.</legalUse>
                            <description>Kortet viser lokalitetens placering i Danmark.</description>
                            <link>http://www.kulturarv.dk/fundogfortidsminder/resource/map/206758</link>
                            <isShownAt xsi:nil="true"/>
                            <documentType>
                                <conceptID ff:type="uri">http://www.kulturarv.dk/fundogfortidsminder/skos/digitaldocumentation#USP</conceptID>
                                <term>Uspecificeret</term>
                            </documentType>
                        </digitalDocumentation>
                    </ff:digitalDocumentations>
                </ff:site>
            </metadata>
        </record>
        <resumptionToken expirationDate="2018-08-29T07:41:47Z" completeListSize="203008" cursor="0">1535524907958:Sites:ff:250::</resumptionToken>
    </ListRecords>
</OAI-PMH>
